{
  "contracts": ["contracts/**"],
  "app": {
    "css/app.css": ["src/css/**"],
    "js/app.js": ["src/main.js"],
    "images/": ["src/images/**"],
    "index.html": "src/index.html"
  },
  "buildDir": "dist/",
  "config": "config/",
  "versions": {
    "solc": "0.6.1"
  },
  "plugins": {
  },
  "options": {
    "solc": {
      "optimize": true,
      "optimize-runs": 200
    }
  },
  "generationDir": "embarkArtifacts"
}
